{
    "KPlugin": {
        "Authors": [
            {
                "Email": "fxrh@gmx.de",
                "Name": "Felix Rohrbach"
            }
        ],
        "Category": "Shorteners",
        "Description": "A plugin to shorten URLs via the is.gd service.",
        "Description[ar]": "ملحقة لتقصير الوصلات بخدمة is.gd.",
        "Description[bg]": "Приставка за съкращаване на адреси чрез услугата is.gd.",
        "Description[bs]": "Priključak koji skraćuje URL-ove pomoću servisa is.gd.",
        "Description[ca@valencia]": "Un connector per a escurçar l'URL a través del servei is.gd.",
        "Description[ca]": "Un connector per a escurçar l'URL a través del servei is.gd.",
        "Description[cs]": "Zásuvný modul pro zkracování URL s použitím služby is.gd.",
        "Description[da]": "Et plugin til at afkorte URL'er via tjenesten is.gd.",
        "Description[de]": "Ein Modul, um Adressen (URLs) mit Hilfe des is.gd-Dienstes zu kürzen",
        "Description[el]": "Πρόσθετο συντόμευσης για URL με την υπηρεσία is.gd",
        "Description[en_GB]": "A plugin to shorten URLs via the is.gd service.",
        "Description[es]": "Un complemento para acortar los URL por medio del servicio de is.gd.",
        "Description[et]": "Plugin URL-ide lühendamiseks is.gd teenuse abil.",
        "Description[eu]": "is.gd zerbitzua erabiliz URLak laburtzeko plugina",
        "Description[fi]": "Liitännäinen verkko-osoitteiden lyhentämiseen is.gd-palvelun kautta.",
        "Description[fr]": "Un module externe pour raccourcir les URL grâce au service « is.gd ».",
        "Description[gl]": "Un complemento para abreviar URL mediante o servizo is.gd.",
        "Description[hr]": "Priključak koji skraćuje URL-ove pomoću servisa is.gd.",
        "Description[hu]": "Bővítmény hivatkozások rövidítéséhez az is.gd szolgáltatással.",
        "Description[it]": "Un'estensione per abbreviare gli URL con il servizio is.gd.",
        "Description[ja]": "is.gd のサービスを通じて URL を短縮するためのプラグイン。",
        "Description[km]": "កម្ម​វិធី​ជំនួយ​​ដែល​ត្រូវ​កាត់​ URLs ឲ្យ​ខ្លី​តាម​រយៈ​សេវា​របស់​​ is.gd​ ។",
        "Description[ko]": "is.gd 서비스로 URL을 단축하는 플러그인입니다.",
        "Description[nb]": "Et programtillegg som korter inn URL-er via is.gd-tjenesten.",
        "Description[nds]": "En Moduul för't Kortmaken vun Adressen mit \"is.gd\".",
        "Description[nl]": "Een plugin voor het inkorten van URL's via de is.gd-service.",
        "Description[pa]": "is.gd ਸਰਵਿਸ ਰਾਹੀਂ URL ਛੋਟੇ ਕਰਨ ਲਈ ਪਲੱਗਇਨ",
        "Description[pl]": "Wtyczka do skracania adresów URL przy pomocy serwisu is.gd.",
        "Description[pt]": "Um 'plugin' para reduzir os URL's, usando o serviço do is.gd.",
        "Description[pt_BR]": "Plugin para encurtar URLs com o serviço is.gd.",
        "Description[ru]": "Модуль для сокращения ссылок с помощью службы is.gd.",
        "Description[sk]": "Doplnok na skracovanie URL adries cez službu is.gd.",
        "Description[sl]": "Vstavek za krajšanje URL-jev preko storitve is.gd.",
        "Description[sv]": "Ett insticksprogram för att avkorta webbadresser via tjänsten is.gd.",
        "Description[tr]": "is.gd kullanarak URL'leri kısaltmaya yarayan bir eklenti.",
        "Description[uk]": "Додаток для скорочення адрес за допомогою служб is.gd.",
        "Description[x-test]": "xxA plugin to shorten URLs via the is.gd service.xx",
        "Description[zh_CN]": "通过 is.gd 服务缩短 URL 的插件。",
        "Description[zh_TW]": "用 is.gd 縮短網址用的外掛程式",
        "EnabledByDefault": false,
        "Icon": "choqok",
        "Id": "choqok_is_gd",
        "License": "GPL",
        "Name": "is.gd",
        "Name[ar]": "is.gd",
        "Name[bg]": "is.gd",
        "Name[bs]": "is.gd",
        "Name[ca@valencia]": "is.gd",
        "Name[ca]": "is.gd",
        "Name[cs]": "is.gd",
        "Name[da]": "is.gd",
        "Name[de]": "is.gd",
        "Name[el]": "is.gd",
        "Name[en_GB]": "is.gd",
        "Name[es]": "is.gd",
        "Name[et]": "is.gd",
        "Name[eu]": "is.gd",
        "Name[fi]": "is.gd",
        "Name[fr]": "is.gd",
        "Name[gl]": "is.gd",
        "Name[hr]": "is.gd",
        "Name[hu]": "is.gd",
        "Name[ia]": "is.gd",
        "Name[it]": "is.gd",
        "Name[ja]": "is.gd",
        "Name[km]": "is.gd",
        "Name[ko]": "is.gd",
        "Name[nb]": "is.gd",
        "Name[nds]": "is.gd",
        "Name[nl]": "is.gd",
        "Name[pa]": "is.gd",
        "Name[pl]": "is.gd",
        "Name[pt]": "is.gd",
        "Name[pt_BR]": "is.gd",
        "Name[ru]": "is.gd",
        "Name[sk]": "is.gd",
        "Name[sl]": "is.gd",
        "Name[sv]": "is.gd",
        "Name[tr]": "is.gd",
        "Name[uk]": "is.gd",
        "Name[x-test]": "xxis.gdxx",
        "Name[zh_CN]": "is.gd",
        "Name[zh_TW]": "is.gd",
        "Version": "0.1",
        "Website": "https://choqok.kde.org"
    },
    "X-KDE-ConfigModule": "choqok_plugins/kcms/kcm_choqok_is_gd"
}
