{
    "KPlugin": {
        "Description": "Yourls",
        "Description[ar]": "Yourls",
        "Description[bg]": "Yourls",
        "Description[bs]": "Yourls",
        "Description[ca@valencia]": "Yourls",
        "Description[ca]": "Yourls",
        "Description[cs]": "Yourls",
        "Description[da]": "Yourls",
        "Description[de]": "Yourls",
        "Description[el]": "Yourls",
        "Description[en_GB]": "Yourls",
        "Description[es]": "Yourls",
        "Description[et]": "Yourls",
        "Description[eu]": "Yourls",
        "Description[fi]": "Yourls",
        "Description[fr]": "Yourls",
        "Description[gl]": "Yourls",
        "Description[hr]": "Yourls",
        "Description[hu]": "Yourls",
        "Description[it]": "Yourls",
        "Description[ja]": "Yourls",
        "Description[km]": "Yourls",
        "Description[ko]": "Yourls",
        "Description[nb]": "Yourls",
        "Description[nds]": "Yourls",
        "Description[nl]": "Yourls",
        "Description[pa]": "Yourls",
        "Description[pl]": "Yourls",
        "Description[pt]": "Yourls",
        "Description[pt_BR]": "Yourls",
        "Description[ru]": "Yourls",
        "Description[sk]": "Yourls",
        "Description[sl]": "Yourls",
        "Description[sv]": "Yourls",
        "Description[tr]": "Yourls",
        "Description[ug]": "Yourls",
        "Description[uk]": "Yourls",
        "Description[x-test]": "xxYourlsxx",
        "Description[zh_CN]": "Yourls",
        "Description[zh_TW]": "Yourls",
        "Icon": "kaboodle",
        "Name": "Yourls",
        "Name[ar]": "Yourls",
        "Name[bg]": "Yourls",
        "Name[bs]": "Yourls",
        "Name[ca@valencia]": "Yourls",
        "Name[ca]": "Yourls",
        "Name[cs]": "Yourls",
        "Name[da]": "Yourls",
        "Name[de]": "Yourls",
        "Name[el]": "Yourls",
        "Name[en_GB]": "Yourls",
        "Name[es]": "Yourls",
        "Name[et]": "Yourls",
        "Name[eu]": "Yourls",
        "Name[fi]": "Yourls",
        "Name[fr]": "Yourls",
        "Name[gl]": "Yourls",
        "Name[hr]": "Yourls",
        "Name[hu]": "Yourls",
        "Name[it]": "Yourls",
        "Name[ja]": "Yourls",
        "Name[km]": "Yourls",
        "Name[ko]": "Yourls",
        "Name[nb]": "Yourls",
        "Name[nds]": "Yourls",
        "Name[nl]": "Yourls",
        "Name[pa]": "Yourls",
        "Name[pl]": "Yourls",
        "Name[pt]": "Yourls",
        "Name[pt_BR]": "Yourls",
        "Name[ru]": "Yourls",
        "Name[sk]": "Yourls",
        "Name[sl]": "Yourls",
        "Name[sv]": "Yourls",
        "Name[tr]": "Yourls",
        "Name[ug]": "Yourls",
        "Name[uk]": "Yourls",
        "Name[x-test]": "xxYourlsxx",
        "Name[zh_CN]": "Yourls",
        "Name[zh_TW]": "Yourls"
    }
}
