{
    "KPlugin": {
        "Description": "tinyarro.ws",
        "Description[ar]": "tinyarro.ws",
        "Description[bg]": "tinyarro.ws",
        "Description[bs]": "tinyarro.ws",
        "Description[ca@valencia]": "tinyarro.ws",
        "Description[ca]": "tinyarro.ws",
        "Description[cs]": "tinyarro.ws",
        "Description[da]": "tinyarro.ws",
        "Description[de]": "tinyarro.ws",
        "Description[el]": "tinyarro.ws",
        "Description[en_GB]": "tinyarro.ws",
        "Description[es]": "tinyarro.ws",
        "Description[et]": "tinyarro.ws",
        "Description[eu]": "tinyarro.ws",
        "Description[fi]": "tinyarro.ws",
        "Description[fr]": "tinyarro.ws",
        "Description[gl]": "tinyarro.ws",
        "Description[hr]": "tinyarro.ws",
        "Description[hu]": "tinyarro.ws",
        "Description[it]": "tinyarro.ws",
        "Description[km]": "tinyarro.ws",
        "Description[ko]": "tinyarro.ws",
        "Description[nb]": "tinyarro.ws",
        "Description[nds]": "tinyarro.ws",
        "Description[nl]": "tinyarro.ws",
        "Description[pa]": "tinyarro.ws",
        "Description[pl]": "tinyarro.ws",
        "Description[pt]": "tinyarro.ws",
        "Description[pt_BR]": "tinyarro.ws",
        "Description[ru]": "tinyarro.ws",
        "Description[sk]": "tinyarro.ws",
        "Description[sl]": "tinyarro.ws",
        "Description[sv]": "tinyarro.ws",
        "Description[tr]": "tinyarro.ws",
        "Description[ug]": "tinyarro.ws",
        "Description[uk]": "tinyarro.ws",
        "Description[x-test]": "xxtinyarro.wsxx",
        "Description[zh_CN]": "tinyarro.ws",
        "Description[zh_TW]": "tinyarro.ws",
        "Icon": "kaboodle",
        "Name": "tinyarro.ws",
        "Name[ar]": "tinyarro.ws",
        "Name[bg]": "tinyarro.ws",
        "Name[bs]": "tinyarro.ws",
        "Name[ca@valencia]": "tinyarro.ws",
        "Name[ca]": "tinyarro.ws",
        "Name[cs]": "tinyarrow.ws",
        "Name[da]": "tinyarro.ws",
        "Name[de]": "tinyarro.ws",
        "Name[el]": "tinyarro.ws",
        "Name[en_GB]": "tinyarro.ws",
        "Name[es]": "tinyarro.ws",
        "Name[et]": "tinyarro.ws",
        "Name[eu]": "tinyarro.ws",
        "Name[fi]": "tinyarro.ws",
        "Name[fr]": "tinyarro.ws",
        "Name[gl]": "tinyarro.ws",
        "Name[hr]": "tinyarro.ws",
        "Name[hu]": "tinyarro.ws",
        "Name[it]": "tinyarro.ws",
        "Name[km]": "tinyarro.ws",
        "Name[ko]": "tinyarro.ws",
        "Name[nb]": "tinyarro.ws",
        "Name[nds]": "tinyarro.ws",
        "Name[nl]": "tinyarro.ws",
        "Name[pa]": "tinyarro.ws",
        "Name[pl]": "tinyarro.ws",
        "Name[pt]": "tinyarro.ws",
        "Name[pt_BR]": "tinyarro.ws",
        "Name[ru]": "tinyarro.ws",
        "Name[sk]": "tinyarro.ws",
        "Name[sl]": "tinyarro.ws",
        "Name[sv]": "tinyarro.ws",
        "Name[tr]": "tinyarro.ws",
        "Name[ug]": "tinyarro.ws",
        "Name[uk]": "tinyarro.ws",
        "Name[x-test]": "xxtinyarro.wsxx",
        "Name[zh_CN]": "tinyarro.ws",
        "Name[zh_TW]": "tinyarro.ws"
    }
}
