{
    "KPlugin": {
        "Authors": [
            {
                "Email": "gmlastik@gmail.com",
                "Name": "Andrey Esin"
            }
        ],
        "Category": "Shorteners",
        "Description": "A plugin to shorten URLs via the tinyarro.ws service.",
        "Description[ar]": "ملحقة لتقصير الوصلات بخدمة tinyarro.ws.",
        "Description[bg]": "Приставка за съкращаване на адреси чрез услугата tinyarro.ws.",
        "Description[bs]": "Dodatak za skraćenje URL pomoću tinyarro.ws servisa.",
        "Description[ca@valencia]": "Un connector per a escurçar l'URL a través del servei tinyarro.ws.",
        "Description[ca]": "Un connector per a escurçar l'URL a través del servei tinyarro.ws.",
        "Description[cs]": "Zásuvný modul pro zkracování URL s použitím služby tinyarro.ws.",
        "Description[da]": "Et plugin til at afkorte URL'er via tjenesten tinyarro.ws.",
        "Description[de]": "Ein Modul, um Adressen (URLs) mit Hilfe des tinyarro.ws-Dienstes zu kürzen",
        "Description[el]": "Πρόσθετο συντόμευσης για URL με την υπηρεσία tinyarro.ws",
        "Description[en_GB]": "A plugin to shorten URLs via the tinyarro.ws service.",
        "Description[es]": "Un complemento para acortar los URL por medio del servicio de tinyarro.ws.",
        "Description[et]": "Plugin URL-ide lühendamiseks tinyarro.ws teenuse abil.",
        "Description[eu]": "tinyarro.ws zerbitzua erabiliz URLak laburtzeko plugina",
        "Description[fi]": "Liitännäinen verkko-osoitteiden lyhentämiseen tinyarro.ws-palvelun kautta.",
        "Description[fr]": "Un module externe pour raccourcir les URL grâce au service « tinyarro.ws ».",
        "Description[gl]": "Un complemento para abreviar URL mediante o servizo tinyarro.ws.",
        "Description[hr]": "Priključak koji skraćuje URL-ove pomoću servisa tinyarro.ws.",
        "Description[hu]": "Bővítmény hivatkozások rövidítéséhez az tinyarro.ws szolgáltatással.",
        "Description[it]": "Un'estensione per abbreviare gli URL con il servizio tinyarro.ws.",
        "Description[km]": "កម្ម​វិធី​ជំនួយ​​ដែល​ត្រូវ​កាត់​ URLs ឲ្យ​ខ្លី​តាម​រយៈ​សេវា​របស់ ​ tinyarro.ws ។",
        "Description[ko]": "tinyarro.ws 서비스로 URL을 단축하는 플러그인입니다.",
        "Description[nb]": "Et programtillegg som korter inn URL-er via tinyarro.ws-tjenesten.",
        "Description[nds]": "En Moduul för't Kortmaken vun Adressen mit \"tinyarro.ws\".",
        "Description[nl]": "Een plugin voor het inkorten van URL's via de tinyarro.ws-service.",
        "Description[pa]": "tinyyarro.ws ਸਰਵਿਸ ਰਾਹੀਂ URL ਛੋਟੇ ਕਰਨ ਲਈ ਪਲੱਗਇਨ",
        "Description[pl]": "Wtyczka do skracania adresów URL przy pomocy serwisu tinyarro.ws.",
        "Description[pt]": "Um 'plugin' para reduzir os URL's, usando o serviço do tinyarro.ws.",
        "Description[pt_BR]": "Plugin para encurtar URLs com o serviço tinyarro.ws.",
        "Description[ru]": "Модуль для сокращения ссылок с помощью службы tinyarro.ws.",
        "Description[sk]": "Doplnok na skracovanie URL adries cez službu tinyarro.ws.",
        "Description[sl]": "Vstavek za krajšanje URL-jev preko storitve tinyarro.ws.",
        "Description[sv]": "Ett insticksprogram för att avkorta webbadresser via tjänsten tinyarro.ws.",
        "Description[tr]": "tinyarro.ws kullanarak URL'Leri kısaltmaya yarayan bir eklenti.",
        "Description[uk]": "Додаток для скорочення адрес за допомогою служби tinyarro.ws.",
        "Description[x-test]": "xxA plugin to shorten URLs via the tinyarro.ws service.xx",
        "Description[zh_CN]": "通过 tinyarro.ws 服务缩短 URL 的插件。",
        "Description[zh_TW]": "用 tinyarro.ws 縮短網址用的外掛程式",
        "EnabledByDefault": false,
        "Icon": "choqok",
        "Id": "choqok_tinyarro_ws",
        "License": "GPL",
        "Name": "tinyarro.ws",
        "Name[ar]": "tinyarro.ws",
        "Name[bg]": "tinyarro.ws",
        "Name[bs]": "tinyarro.ws",
        "Name[ca@valencia]": "tinyarro.ws",
        "Name[ca]": "tinyarro.ws",
        "Name[cs]": "tinyarrow.ws",
        "Name[da]": "tinyarro.ws",
        "Name[de]": "tinyarro.ws",
        "Name[el]": "tinyarro.ws",
        "Name[en_GB]": "tinyarro.ws",
        "Name[es]": "tinyarro.ws",
        "Name[et]": "tinyarro.ws",
        "Name[eu]": "tinyarro.ws",
        "Name[fi]": "tinyarro.ws",
        "Name[fr]": "tinyarro.ws",
        "Name[gl]": "tinyarro.ws",
        "Name[hr]": "tinyarro.ws",
        "Name[hu]": "tinyarro.ws",
        "Name[it]": "tinyarro.ws",
        "Name[km]": "tinyarro.ws",
        "Name[ko]": "tinyarro.ws",
        "Name[nb]": "tinyarro.ws",
        "Name[nds]": "tinyarro.ws",
        "Name[nl]": "tinyarro.ws",
        "Name[pa]": "tinyarro.ws",
        "Name[pl]": "tinyarro.ws",
        "Name[pt]": "tinyarro.ws",
        "Name[pt_BR]": "tinyarro.ws",
        "Name[ru]": "tinyarro.ws",
        "Name[sk]": "tinyarro.ws",
        "Name[sl]": "tinyarro.ws",
        "Name[sv]": "tinyarro.ws",
        "Name[tr]": "tinyarro.ws",
        "Name[ug]": "tinyarro.ws",
        "Name[uk]": "tinyarro.ws",
        "Name[x-test]": "xxtinyarro.wsxx",
        "Name[zh_CN]": "tinyarro.ws",
        "Name[zh_TW]": "tinyarro.ws",
        "Version": "0.1",
        "Website": "https://choqok.kde.org"
    },
    "X-KDE-ConfigModule": "choqok_plugins/kcms/kcm_choqok_tinyarro_ws"
}
