{
    "KPlugin": {
        "Authors": [
            {
                "Email": "mehrdad.momeny@gmail.com",
                "Name": "Mehrdad Momeny"
            }
        ],
        "Category": "Plugins",
        "Description": "Load a thumbnail of images to have a preview of it",
        "Description[ar]": "تحمّل مصغّرة للصّور لعرض معاينة لها",
        "Description[bg]": "Зареждане на умалена картинка на изображенията за предварителен преглед",
        "Description[bs]": "Učitavanje sličice da bi se pregledala",
        "Description[ca@valencia]": "Carrega una miniatura de les imatges per a tindre'n una vista prèvia",
        "Description[ca]": "Carrega una miniatura de les imatges per a tenir-ne una vista prèvia",
        "Description[cs]": "Načíst miniatury obrázků pro jejich náhled",
        "Description[da]": "Indlæs en miniature af billeder for at have en forhåndsvisning af dem",
        "Description[de]": "Vorschau für Bilder laden",
        "Description[el]": "Φόρτωση μικρογραφιών για προεπισκόπηση",
        "Description[en_GB]": "Load a thumbnail of images to have a preview of it",
        "Description[es]": "Carga una miniatura de las imágenes para previsualizarlas",
        "Description[et]": "Pisipiltide laadimine eelvaatluseks",
        "Description[eu]": "Kargatu irudien koadro txikiak beraien aurreikuspegia izateko",
        "Description[fi]": "Lataa kuvista pieni esikatselukuva",
        "Description[fr]": "Charge une vignette des images pour en avoir un aperçu",
        "Description[gl]": "Cargar unha miniatura das imaxes para dispor dunha vista previa",
        "Description[hu]": "Képek bélyegképeinek betöltése és előnézet megjelenítése",
        "Description[it]": "Carica una miniatura delle immagini per averne un'anteprima",
        "Description[ja]": "プレビューするために画像のサムネイルを読み込む",
        "Description[km]": "ផ្ទុក​រូបភាព​តូច​របស់​រូបភាព ដើម្បី​ឲ្យ​មាន​ទិដ្ឋភាព​មើល​ជាមុន​របស់​វា",
        "Description[ko]": "그림의 축소판을 불러와서 미리 보기",
        "Description[nb]": "Last inn miniatyrer av bilder for å få en forhåndsvisning",
        "Description[nds]": "Bildvöransichten laden",
        "Description[nl]": "Een miniatuur van afbeeldingen laden om er voorbeeld van te bekijken",
        "Description[pl]": "Wczytaj miniaturki obrazów do podglądu",
        "Description[pt]": "Carrega uma miniatura das imagens para as antever",
        "Description[pt_BR]": "Carrega uma miniatura das imagens",
        "Description[ru]": "Загрузка миниатюр для предварительного просмотра изображений",
        "Description[sk]": "Na zobrazenie miniatúry obrázkov vložte ukážku",
        "Description[sl]": "Naloži sličice slik za predogled",
        "Description[sv]": "Läs in en miniatyrbild för att ha en förhandsgranskning av bilden",
        "Description[tr]": "Önizlemesini göstermek üzere küçük görseller yükle",
        "Description[uk]": "Завантаження мініатюр зображень для попереднього перегляду",
        "Description[x-test]": "xxLoad a thumbnail of images to have a preview of itxx",
        "Description[zh_CN]": "加载图片缩略图以便预览",
        "Description[zh_TW]": "載入影像縮圖以用於預覽",
        "EnabledByDefault": true,
        "Icon": "view-preview",
        "Id": "choqok_imagepreview",
        "License": "GPL",
        "Name": "Preview Images",
        "Name[ar]": "معاينة الصّور",
        "Name[bg]": "Предварителен преглед на изображения",
        "Name[bs]": "Pregled slika",
        "Name[ca@valencia]": "Vista prèvia d'imatges",
        "Name[ca]": "Vista prèvia d'imatges",
        "Name[cs]": "Náhledy obrázků",
        "Name[da]": "Forhåndsvis billeder",
        "Name[de]": "Vorschau von Bildern anzeigen",
        "Name[el]": "Προεπισκόπηση εικόνων",
        "Name[en_GB]": "Preview Images",
        "Name[es]": "Previsualización de imágenes",
        "Name[et]": "Piltide eelvaatlus",
        "Name[eu]": "Aurreikusi irudiak",
        "Name[fa]": "پیش‌نمایش تصاویر",
        "Name[fi]": "Esikatselukuvat",
        "Name[fr]": "Miniatures d'images",
        "Name[gl]": "Previsualización das imaxes",
        "Name[hu]": "Képek előnézete",
        "Name[ia]": "Imagines de vista preliminar",
        "Name[it]": "Anteprima delle immagini",
        "Name[ja]": "画像のプレビュー",
        "Name[km]": "រូបភាព​មើល​ជា​មុន",
        "Name[ko]": "그림 미리 보기",
        "Name[lt]": "Peržiūrėti paveikslėlius",
        "Name[nb]": "Forhåndsvis bilder",
        "Name[nds]": "Vöransichtbiller",
        "Name[nl]": "Afbeeldingen vooraf tonen",
        "Name[nn]": "Førehandsvis bilete",
        "Name[pa]": "ਚਿੱਤਰ ਝਲਕ",
        "Name[pl]": "Podgląd obrazów",
        "Name[pt]": "Imagens de Antevisão",
        "Name[pt_BR]": "Visualização de imagens",
        "Name[ru]": "Предварительный просмотр изображений",
        "Name[sk]": "Náhľad obrázkov",
        "Name[sl]": "Predogled slik",
        "Name[sv]": "Förhandsgranska bilder",
        "Name[tr]": "Görselleri Önizle",
        "Name[ug]": "سۈرەتنى ئالدىن كۆزەت",
        "Name[uk]": "Попередній перегляд зображень",
        "Name[x-test]": "xxPreview Imagesxx",
        "Name[zh_CN]": "预览图像",
        "Name[zh_TW]": "預覽影像",
        "Version": "0.3",
        "Website": "https://choqok.kde.org"
    }
}
